{
    "globals": {
      "storage-user": "cibot",
      "storage-pwd": "cibot",
      "git-path": "git",
      "domain-email": "myCompany.org",
      "lic-try-count": 5,
      "plugins": {
        "enable": [
          "check-authors",
          "sync-remote"
        ]
      },
      "plugins-config": {
        "push-n-commits": 0,
        "push-tags": true,
        "skip-exists-tags": false,
        "rename-module": true,
        "rename-form": true,
        "push": true
      }
    },
    "repositories": [
      {
        "name": "my-base",
        "path": "C:\\Develop\\Temp\\demo\\repo",
        "dir": "./src/cf",
        "temp-dir": "",
        "v8version": "8.3.20",
        "plugins-config": {
          "URL": "https://olegtymko@bitbucket.org/olegtymko/demo.git"
        }
      }
    ]
  }